<?xml version="1.0"?>

<robot name="marysol" xmlns:xacro="http://www.ros.org/wiki/xacro">

  <!-- Cargamos modulos comunes -->
  <xacro:include filename="$(find marysol_description)/urdf/common/inertial.xacro"/>
  <xacro:include filename="$(find marysol_description)/urdf/common/materials.xacro"/>
  <xacro:include filename="$(find marysol_description)/urdf/common/constants.xacro"/>

  <!-- Establecemos el primer link de la estructura del robot "footprint" -->
  <link name="footprint"/>

  <!-- Conectamos el "footprint" con el "base_link" -->
  <xacro:include filename="$(find marysol_description)/urdf/common/robot_elements/body3.urdf.xacro"/>
  <body parent="footprint" type="floating">
    <origin xyz="0 0 0.125" rpy="0 -0.09 0"/>
  </body>

  <!-- Conectamos el "base_link" con las ruedas -->
  <xacro:include filename="$(find marysol_description)/urdf/common/robot_elements/wheel.urdf.xacro"/>
  <wheel parent="base_link" type="floating" side="right">
    <origin xyz="0 -0.27 0" rpy="-${M_PI/2} 0 0"/>
  </wheel>
  <wheel parent="base_link" type="floating" side="left">
    <origin xyz="0 0.27 0" rpy="-${M_PI/2} 0 0"/>
  </wheel>

  <!-- Conectamos el "base_link" con el "caster" -->
  <xacro:include filename="$(find marysol_description)/urdf/common/robot_elements/caster.urdf.xacro"/>
  <caster parent="base_link" side="back">
    <origin xyz="-0.23 0.0 0.025" rpy="0 0 ${M_PI/2}"/>
  </caster>

  <!-- Conectamos el "base_link" con el octo_base_link del anillo de sensores -->
  <xacro:include filename="$(find marysol_description)/urdf/common/robot_elements/SensorRing.urdf.xacro"/>
  <SensorRingBase parent="base_link">
    <origin xyz="0 0 0.17" rpy="0 0.104 0"/>
  </SensorRingBase>
  <SensorRingCorner parent="octo_base_link" corner="1" left="A" middle="B" right="C">
    <origin xyz="0.06 -0.20 0.0" rpy="0 0 -${M_PI/2}"/>
  </SensorRingCorner>
  <SensorRingCorner parent="octo_base_link" corner="2" left="D" middle="E" right="F">
    <origin xyz="0.06 0.20 0.0" rpy="0 0 0"/>
  </SensorRingCorner>
  <SensorRingCorner parent="octo_base_link" corner="3" left="G" middle="H" right="I">
    <origin xyz="-0.29 0.20 0.0" rpy="0 0 ${M_PI/2}"/>
  </SensorRingCorner>
  <SensorRingCorner parent="octo_base_link" corner="4" left="J" middle="K" right="L">
    <origin xyz="-0.29 -0.20 0.0" rpy="0 0 ${M_PI}"/>
  </SensorRingCorner>

  <!-- Conectamos el "base_link" con la los frames de calibración de la kinect2 -->
  <xacro:include filename="$(find marysol_description)/urdf/common/calibration/kinect2_pose.urdf.xacro"/>
  <pose_kinect2 parent="base_link">
    <origin xyz="0.08 0 0.87" rpy="0 0 0"/>
  </pose_kinect2>
  <!-- Conectamos el último link de calibracion con el sensor kinect2 -->
  <xacro:include filename="$(find marysol_description)/urdf/common/robot_elements/kinect2.urdf.xacro"/>
  <kinect2 parent="kinect2_angle" visual="0 0 0">
    <origin xyz="0 0 0" rpy="${M_PI/2} ${M_PI} ${M_PI/2}"/>
  </kinect2>
  <!-- Colocamos un nuevo link para hacer coincidir con el de simulacion -->
  <kinect2_optical parent="kinect2_link">
    <origin xyz="0 0 0" rpy="0 0 0"/>
  </kinect2_optical>

  <!-- Conectamos el "base_link" con el octo_base_link del anillo de sensores
  <xacro:include filename="$(find marysol_description)/urdf/common/robot_elements/SensorRing.urdf.xacro"/>
  <SensorRingCorner parent="octo_base_link" corner="1" left="A" middle="B" right="C">
    <origin xyz="0.06 -0.20 0.0" rpy="0 0 -${M_PI/2}"/>
  </SensorRingCorner>
  <SensorRingCorner parent="octo_base_link" corner="2" left="D" middle="E" right="F">
    <origin xyz="0.06 0.20 0.0" rpy="0 0 0"/>
  </SensorRingCorner>
  <SensorRingCorner parent="octo_base_link" corner="3" left="G" middle="H" right="I">
    <origin xyz="-0.29 0.20 0.0" rpy="0 0 ${M_PI/2}"/>
  </SensorRingCorner>
  <SensorRingCorner parent="octo_base_link" corner="4" left="J" middle="K" right="L">
    <origin xyz="-0.29 -0.20 0.0" rpy="0 0 ${M_PI}"/>
  </SensorRingCorner> -->

  <!-- Conectamos el "base_link" con la imu -->
  <xacro:include filename="$(find marysol_description)/urdf/common/robot_elements/imu.urdf.xacro"/>
  <SensorImu parent="footprint">
    <origin xyz="0 0 0.125" rpy="0 0 0"/>
  </SensorImu>

  <!-- Cargamos las transmisiones de las ruedas a traves del ros_control
  <xacro:include filename="$(find marysol_description)/urdf/common/transmissions/effort_wheels_transmission.xacro"/> -->

</robot>
