<?xml version="1.0"?>

<robot name="marysol" xmlns:xacro="http://www.ros.org/wiki/xacro">

  <xacro:macro name="FineTunePose" params="parent *origin prefix">

    <xacro:if value="$(arg simulation)">

      <!-- Concatenamos el link del sensor -->
      <joint name="${prefix}_pose" type="fixed">
        <xacro:insert_block name="origin" />
        <parent link="${parent}"/>
        <child link="${prefix}_pose" />
      </joint>

      <link name="${prefix}_pose"/>

    </xacro:if>

    <xacro:unless value="$(arg simulation)">
      <!-- Concatenamos los tres links de calibracion para el sensor -->

    	<joint name="${prefix}_high" type="prismatic">
        <axis xyz="0 0 1"/>
        <xacro:insert_block name="origin" />
        <limit effort="1000.0" lower="-0.1" upper="0.1" velocity="0.1"/>
        <parent link="${parent}"/>
        <child link="${prefix}_high" />
      </joint>

      <link name="${prefix}_high"/>

      <joint name="${prefix}_depht" type="prismatic">
        <axis xyz="1 0 0"/>
        <origin xyz="0 0 0" rpy="0 0 0"/>
        <limit effort="1000.0" lower="-0.05" upper="0.05" velocity="0.1"/>
        <parent link="${prefix}_high"/>
        <child link="${prefix}_depht" />
      </joint>

      <link name="${prefix}_depht"/>

      <joint name="${prefix}_angle" type="revolute">
        <axis xyz="0 1 0"/>
        <origin xyz="0 0 0" rpy="0 0 0"/>
        <limit effort="1000.0" lower="${-M_PI/4}" upper="${M_PI/4}" velocity="0.1"/>
        <parent link="${prefix}_depht"/>
        <child link="${prefix}_angle" />
      </joint>

      <link name="${prefix}_angle"/>

      <joint name="${prefix}_pose" type="fixed">
        <origin xyz="0 0 0" rpy="0 0 0"/>
        <parent link="${prefix}_angle"/>
        <child link="${prefix}_pose" />
      </joint>

      <link name="${prefix}_pose"/>

    </xacro:unless>

  </xacro:macro>

</robot>
