<?xml version="1.0" ?>
<robot name="xacro_properties" xmlns:xacro="http://www.ros.org/wiki/xacro">

  <!--Estos xacros permiten darle una inercia a los links del robot -->

  <xacro:macro name="cylinder_inertial" params="radius length mass origin">
    <inertial>
      <origin xyz="${origin}" rpy="0 0 0"/>
      <mass value="${mass}" />
      <inertia ixx="${0.0833333 * mass * (3 * radius * radius + length * length)}" ixy="0.0" ixz="0.0"
        iyy="${0.0833333 * mass * (3 * radius * radius + length * length)}" iyz="0.0"
        izz="${0.5 * mass * radius * radius}" />
    </inertial>
  </xacro:macro>

  <xacro:macro name="box_inertial" params="mass x y z origin">
    <inertial>
      <origin xyz="${origin}" rpy="0 0 0"/>
      <mass value="${mass}" />
      <inertia  ixx="${mass*(y*y+z*z)/12}" ixy = "0" ixz = "0" iyy="${mass*(x*x+z*z)/12}" iyz = "0" izz="${mass*(x*x+z*z)/12}" />
    </inertial>
  </xacro:macro>

</robot>
