<sdf version='1.6'>
  <world name='default'>
    <light name='sun' type='directional'>
      <cast_shadows>1</cast_shadows>
      <pose frame=''>0 0 10 0 -0 0</pose>
      <diffuse>0.8 0.8 0.8 1</diffuse>
      <specular>0.1 0.1 0.1 1</specular>
      <attenuation>
        <range>1000</range>
        <constant>0.9</constant>
        <linear>0.01</linear>
        <quadratic>0.001</quadratic>
      </attenuation>
      <direction>-0.5 0.5 -1</direction>
    </light>

    <include>
      <uri>model://ground_plane</uri>
    </include>

    <model name='pasillo'>
      <pose frame=''>1.27371 -1.16945 0 0 -0 0</pose>
      <link name='Wall_0'>
        <collision name='Wall_0_Collision'>
          <geometry>
            <box>
              <size>16 0.15 1.5</size>
            </box>
          </geometry>
          <pose frame=''>0 0 0.75 0 -0 0</pose>
        </collision>
        <visual name='Wall_0_Visual'>
          <pose frame=''>0 0 0.75 0 -0 0</pose>
          <geometry>
            <box>
              <size>16 0.15 1.5</size>
            </box>
          </geometry>
          <material>
            <script>
              <uri>file://media/materials/scripts/gazebo.material</uri>
              <name>Gazebo/Wood</name>
            </script>
            <ambient>1 1 1 1</ambient>
          </material>
        </visual>
        <pose frame=''>-2.67744 0.002484 0 0 -0 1.5708</pose>
      </link>
      <link name='Wall_12'>
        <collision name='Wall_12_Collision'>
          <geometry>
            <box>
              <size>5.5 0.15 1.5</size>
            </box>
          </geometry>
          <pose frame=''>0 0 0.75 0 -0 0</pose>
        </collision>
        <visual name='Wall_12_Visual'>
          <pose frame=''>0 0 0.75 0 -0 0</pose>
          <geometry>
            <box>
              <size>5.5 0.15 1.5</size>
            </box>
          </geometry>
          <material>
            <script>
              <uri>file://media/materials/scripts/gazebo.material</uri>
              <name>Gazebo/Wood</name>
            </script>
            <ambient>1 1 1 1</ambient>
          </material>
        </visual>
        <pose frame=''>-0.018203 -7.92755 0 0 -0 0</pose>
      </link>
      <link name='Wall_17'>
        <collision name='Wall_17_Collision'>
          <geometry>
            <box>
              <size>3.5 0.15 1.5</size>
            </box>
          </geometry>
          <pose frame=''>0 0 0.75 0 -0 0</pose>
        </collision>
        <visual name='Wall_17_Visual'>
          <pose frame=''>0 0 0.75 0 -0 0</pose>
          <geometry>
            <box>
              <size>3.5 0.15 1.5</size>
            </box>
          </geometry>
          <material>
            <script>
              <uri>file://media/materials/scripts/gazebo.material</uri>
              <name>Gazebo/Wood</name>
            </script>
            <ambient>1 1 1 1</ambient>
          </material>
        </visual>
        <pose frame=''>-0.928175 -0.817857 0 0 -0 3.14159</pose>
      </link>
      <link name='Wall_19'>
        <collision name='Wall_19_Collision'>
          <geometry>
            <box>
              <size>3.5 0.15 1.5</size>
            </box>
          </geometry>
          <pose frame=''>0 0 0.75 0 -0 0</pose>
        </collision>
        <visual name='Wall_19_Visual'>
          <pose frame=''>0 0 0.75 0 -0 0</pose>
          <geometry>
            <box>
              <size>3.5 0.15 1.5</size>
            </box>
          </geometry>
          <material>
            <script>
              <uri>file://media/materials/scripts/gazebo.material</uri>
              <name>Gazebo/Wood</name>
            </script>
            <ambient>1 1 1 1</ambient>
          </material>
        </visual>
        <pose frame=''>1.03675 2.1906 0 0 -0 3.14159</pose>
      </link>
      <link name='Wall_21'>
        <pose frame=''>2.6568 -0.002555 0 0 -0 1.5708</pose>
        <visual name='Wall_21_Visual_0'>
          <pose frame=''>-6.1228 0 0.75 0 -0 0</pose>
          <geometry>
            <box>
              <size>3.75441 0.15 1.5</size>
            </box>
          </geometry>
          <material>
            <script>
              <uri>file://media/materials/scripts/gazebo.material</uri>
              <name>Gazebo/Wood</name>
            </script>
            <ambient>1 1 1 1</ambient>
          </material>
        </visual>
        <collision name='Wall_21_Collision_0'>
          <geometry>
            <box>
              <size>3.75441 0.15 1.5</size>
            </box>
          </geometry>
          <pose frame=''>-6.1228 0 0.75 0 -0 0</pose>
        </collision>
        <visual name='Wall_21_Visual_1'>
          <pose frame=''>1.8772 0 0.25 0 -0 0</pose>
          <geometry>
            <box>
              <size>12.2456 0.15 0.5</size>
            </box>
          </geometry>
          <material>
            <script>
              <uri>file://media/materials/scripts/gazebo.material</uri>
              <name>Gazebo/Wood</name>
            </script>
            <ambient>1 1 1 1</ambient>
          </material>
        </visual>
        <collision name='Wall_21_Collision_1'>
          <geometry>
            <box>
              <size>12.2456 0.15 0.5</size>
            </box>
          </geometry>
          <pose frame=''>1.8772 0 0.25 0 -0 0</pose>
        </collision>
        <visual name='Wall_21_Visual_2'>
          <pose frame=''>2.2772 0 1.5 0 -0 0</pose>
          <geometry>
            <box>
              <size>11.4456 0.15 2</size>
            </box>
          </geometry>
          <material>
            <script>
              <uri>file://media/materials/scripts/gazebo.material</uri>
              <name>Gazebo/Wood</name>
            </script>
            <ambient>1 1 1 1</ambient>
          </material>
        </visual>
        <collision name='Wall_21_Collision_2'>
          <geometry>
            <box>
              <size>11.4456 0.15 2</size>
            </box>
          </geometry>
          <pose frame=''>2.2772 0 1.5 0 -0 0</pose>
        </collision>
        <visual name='Wall_21_Visual_3'>
          <pose frame=''>-3.84559 0 1.9 0 -0 0</pose>
          <geometry>
            <box>
              <size>0.8 0.15 1.2</size>
            </box>
          </geometry>
          <material>
            <script>
              <uri>file://media/materials/scripts/gazebo.material</uri>
              <name>Gazebo/Wood</name>
            </script>
            <ambient>1 1 1 1</ambient>
          </material>
        </visual>
        <collision name='Wall_21_Collision_3'>
          <geometry>
            <box>
              <size>0.8 0.15 1.2</size>
            </box>
          </geometry>
          <pose frame=''>-3.84559 0 1.9 0 -0 0</pose>
        </collision>
      </link>
      <link name='Wall_22'>
        <pose frame=''>-0.010321 7.92497 0 0 -0 3.14065</pose>
        <visual name='Wall_22_Visual_0'>
          <pose frame=''>-1.58378 0 0.75 0 -0 0</pose>
          <geometry>
            <box>
              <size>2.31667 0.15 1.5</size>
            </box>
          </geometry>
          <material>
            <script>
              <uri>file://media/materials/scripts/gazebo.material</uri>
              <name>Gazebo/CeilingTiled</name>
            </script>
            <ambient>1 1 1 1</ambient>
          </material>
        </visual>
        <collision name='Wall_22_Collision_0'>
          <geometry>
            <box>
              <size>2.31667 0.15 1.5</size>
            </box>
          </geometry>
          <pose frame=''>-1.58378 0 0.75 0 -0 0</pose>
        </collision>
        <visual name='Wall_22_Visual_1'>
          <pose frame=''>1.60834 0 0.75 0 -0 0</pose>
          <geometry>
            <box>
              <size>2.26757 0.15 1.5</size>
            </box>
          </geometry>
          <material>
            <script>
              <uri>file://media/materials/scripts/gazebo.material</uri>
              <name>Gazebo/CeilingTiled</name>
            </script>
            <ambient>1 1 1 1</ambient>
          </material>
        </visual>
        <collision name='Wall_22_Collision_1'>
          <geometry>
            <box>
              <size>2.26757 0.15 1.5</size>
            </box>
          </geometry>
          <pose frame=''>1.60834 0 0.75 0 -0 0</pose>
        </collision>
        <visual name='Wall_22_Visual_2'>
          <pose frame=''>0.02455 0 2.25 0 -0 0</pose>
          <geometry>
            <box>
              <size>0.9 0.15 0.5</size>
            </box>
          </geometry>
          <material>
            <script>
              <uri>file://media/materials/scripts/gazebo.material</uri>
              <name>Gazebo/CeilingTiled</name>
            </script>
            <ambient>1 1 1 1</ambient>
          </material>
        </visual>
        <collision name='Wall_22_Collision_2'>
          <geometry>
            <box>
              <size>0.9 0.15 0.5</size>
            </box>
          </geometry>
          <pose frame=''>0.02455 0 2.25 0 -0 0</pose>
        </collision>
      </link>
      <link name='Wall_3'>
        <collision name='Wall_3_Collision'>
          <geometry>
            <box>
              <size>0.15 0.15 1.5</size>
            </box>
          </geometry>
          <pose frame=''>0 0 0.75 0 -0 0</pose>
        </collision>
        <visual name='Wall_3_Visual'>
          <pose frame=''>0 0 0.75 0 -0 0</pose>
          <geometry>
            <box>
              <size>0.15 0.15 1.5</size>
            </box>
          </geometry>
          <material>
            <script>
              <uri>file://media/materials/scripts/gazebo.material</uri>
              <name>Gazebo/Grey</name>
            </script>
            <ambient>1 1 1 1</ambient>
          </material>
        </visual>
        <pose frame=''>-2.71175 -7.92251 0 0 -0 0</pose>
      </link>
      <static>1</static>
    </model>
    
    <gui fullscreen='0'>
      <camera name='user_camera'>
        <pose frame=''>-9.83128 -9.78773 19.6343 0 0.855644 0.945849</pose>
        <view_controller>orbit</view_controller>
        <projection_type>perspective</projection_type>
      </camera>
    </gui>
  </world>
</sdf>
