<?xml version="1.0"?>

<robot name="marysol" xmlns:xacro="http://www.ros.org/wiki/xacro">
  <xacro:macro name="SensorMicro" params="parent *origin">

    <!-- Conectamos el "base_link" con el "imu_link" -->
    <joint name="respeaker_joint" type="fixed">
      <xacro:insert_block name="origin" />
      <parent link="${parent}"/>
      <child link="respeaker_base" />
    </joint>

    <!-- le damos al "respeaker_base" la estructura visual -->
    <link name="respeaker_base"/>

  </xacro:macro>
</robot>
