<?xml version="1.0"?>

<robot name="marysol" xmlns:xacro="http://www.ros.org/wiki/xacro">
  <xacro:macro name="SensorRingCorner" params="parent corner left middle right *origin">

    <!-- Conectamos el "SensorRing_link" con el "SensorRing_1_link" -->
    <joint name="SensorRing_${corner}_joint" type="fixed">
      <xacro:insert_block name="origin" />
      <parent link="${parent}"/>
      <child link="SensorRing_${corner}_link" />
    </joint>

    <!-- le damos al "SensorRing_corner_link" la estructura visual -->
    <link name="SensorRing_${corner}_link"/>

    <!-- Conectamos el "SensorRing_right_link" con el "Sensor_A_link" -->
    <joint name="Sensor_${right}_joint" type="fixed">
      <origin xyz="0 0 0" rpy="0 0 0"/>
      <parent link="SensorRing_${corner}_link"/>
      <child link="Sensor_${right}_link" />
    </joint>

    <!-- le damos al "SensorRing_right_link" la estructura visual -->
    <link name="Sensor_${right}_link"/>

    <!-- Conectamos el "SensorRing_middle_link" con el "Sensor_B_link" -->
    <joint name="Sensor_${middle}_joint" type="fixed">
      <origin xyz="0 0 0.02" rpy="0 0 ${M_PI/4}"/>
      <parent link="SensorRing_${corner}_link"/>
      <child link="Sensor_${middle}_link" />
    </joint>

    <!-- le damos al "SensorRing_middle_link" la estructura visual -->
    <link name="Sensor_${middle}_link"/>

    <!-- Conectamos el "SensorRing_left_link" con el "Sensor_C_link" -->
    <joint name="Sensor_${left}_joint" type="fixed">
      <origin xyz="0 0 0" rpy="0 0 ${M_PI/2}"/>
      <parent link="SensorRing_${corner}_link"/>
      <child link="Sensor_${left}_link" />
    </joint>

    <!-- le damos al "SensorRing_left_link" la estructura visual -->
    <link name="Sensor_${left}_link"/>

  </xacro:macro>

  <xacro:macro name="SensorRingBase" params="parent *origin">

    <link name="octo_base_link"/>

    <joint name="octo_base_link_joint" type="fixed">
      <xacro:insert_block name="origin" />
      <parent link="${parent}"/>
      <child link="octo_base_link" />
    </joint>

  </xacro:macro>

</robot>
